<svg xmlns="http://www.w3.org/2000/svg" xmlns:xlink="http://www.w3.org/1999/xlink" width="22" height="15" viewBox="180 2115 22 15" version="1.1">
  <desc>
    Created with Sketch.
  </desc>
  <rect id="Rectangle-13" stroke="none" fill="#FFFFFF" fill-rule="evenodd" x="182" y="2122" width="19" height="7"/>
  <g id="Page-1" stroke="none" stroke-width="1" fill="none" fill-rule="evenodd" transform="translate(181.000000, 2115.000000)">
    <path d="M1.65 13.63L19.19 13.63 19.55 7.97 1.29 7.97 1.65 13.63ZM19.52 14.88L1.33 14.88C0.84 14.88 0.43 14.5 0.4 14.02L0 7.69C-0.01 7.44 0.08 7.19 0.25 7.01 0.43 6.83 0.67 6.72 0.93 6.72L19.91 6.72C20.17 6.72 20.42 6.83 20.59 7.01 20.77 7.19 20.86 7.44 20.84 7.69L20.44 14.02C20.41 14.5 20.01 14.88 19.52 14.88L19.52 14.88Z" id="Fill-1" fill="#12A2DC"/>
    <path d="M19.22 7.35L17.95 7.35 17.95 2.66C17.95 2.19 17.82 1.84 17.58 1.61 17.21 1.25 16.62 1.26 16.64 1.25L3.95 1.25 3.95 0 16.62 0C16.72 0 17.72-0.01 18.47 0.71 18.97 1.18 19.22 1.84 19.22 2.66L19.22 7.35Z" id="Fill-4" fill="#12A2DC"/>
    <path d="M14.8 2.32L4.5 2.32C4.33 2.32 4.18 2.18 4.18 2.01L4.18 0.63 15.12 0.63 15.12 2.01C15.12 2.18 14.97 2.32 14.8 2.32" id="Fill-6" fill="#FCFDFD"/>
    <path d="M4.82 1.69L14.48 1.69 14.48 1.25 4.82 1.25 4.82 1.69ZM14.8 2.95L4.5 2.95C3.98 2.95 3.55 2.52 3.55 2.01L3.55 0 15.75 0 15.75 2.01C15.75 2.52 15.32 2.95 14.8 2.95L14.8 2.95Z" id="Fill-8" fill="#12A2DC"/>
  </g>
</svg>
