<svg xmlns="http://www.w3.org/2000/svg" xmlns:xlink="http://www.w3.org/1999/xlink" width="30" height="18" viewBox="238 110 30 18" version="1.1">
  <desc>
    Created with Sketch.
  </desc>
  <defs>
    <polygon id="path-1" points="0 13.53 0 0.94 3.22 0.94 3.22 13.53 0 13.53"/>
    <polygon id="path-3" points="0.62 17 12.03 17 12.03 0.19 0.62 0.19"/>
  </defs>
  <g id="Page-1" stroke="none" stroke-width="1" fill="none" fill-rule="evenodd" transform="translate(238.000000, 110.000000)">
    <path d="M6.84 6.49C6.75 6.4 6.63 6.35 6.5 6.35 6.39 6.35 6.27 6.39 6.18 6.48 6.14 6.52 5.16 7.48 5.16 9.02 5.16 10.57 6.13 11.57 6.17 11.61 6.35 11.79 6.65 11.79 6.83 11.61 7.01 11.43 7.01 11.14 6.83 10.96 6.83 10.95 6.09 10.19 6.09 9.02 6.09 7.88 6.82 7.15 6.83 7.15 7.01 6.97 7.02 6.68 6.84 6.49" id="Fill-1" fill="#00AAE7"/>
    <path d="M3.59 9.01C3.59 6.85 4.97 5.49 4.98 5.48 5.17 5.3 5.17 5.01 4.99 4.82 4.9 4.73 4.78 4.68 4.66 4.68 4.54 4.68 4.43 4.72 4.34 4.81 4.27 4.87 2.66 6.45 2.66 9.01 2.66 11.56 4.26 13.21 4.33 13.28 4.51 13.46 4.8 13.46 4.98 13.28 5.17 13.1 5.17 12.81 4.99 12.63 4.98 12.61 3.59 11.18 3.59 9.01" id="Fill-3" fill="#00AAE7"/>
    <g id="Group-7" transform="translate(0.000000, 1.811500)">
      <mask id="mask-2" fill="white">
        <use xlink:href="#path-1"/>
      </mask>
      <g id="Clip-6"/>
      <path d="M0.93 7.18C0.93 3.85 3.05 1.76 3.07 1.74 3.26 1.56 3.26 1.27 3.09 1.08 2.99 0.99 2.87 0.94 2.75 0.94 2.63 0.94 2.52 0.98 2.43 1.07 2.33 1.16 0 3.45 0 7.18 0 10.9 2.32 13.3 2.42 13.4 2.6 13.58 2.89 13.58 3.08 13.4 3.26 13.22 3.26 12.93 3.08 12.74 3.06 12.72 0.93 10.51 0.93 7.18" id="Fill-5" fill="#00AAE7" mask="url(#mask-2)"/>
    </g>
    <path d="M22.36 6.48C22.18 6.66 22.17 6.96 22.35 7.14 22.36 7.15 23.1 7.91 23.1 9.07 23.1 10.21 22.37 10.94 22.36 10.95 22.18 11.12 22.17 11.42 22.35 11.6 22.44 11.7 22.56 11.75 22.68 11.75 22.8 11.75 22.92 11.7 23.01 11.62 23.05 11.58 24.02 10.62 24.02 9.07 24.02 7.53 23.06 6.53 23.02 6.49 22.84 6.3 22.54 6.3 22.36 6.48" id="Fill-8" fill="#00AAE7"/>
    <path d="M26.77 2.89C26.59 2.71 26.29 2.7 26.11 2.88 25.93 3.06 25.93 3.36 26.11 3.54 26.13 3.56 28.26 5.78 28.26 9.11 28.26 12.43 26.14 14.53 26.11 14.55 25.93 14.73 25.92 15.02 26.1 15.2 26.19 15.3 26.32 15.35 26.44 15.35 26.55 15.35 26.67 15.3 26.76 15.22 26.86 15.12 29.19 12.84 29.19 9.11 29.19 5.38 26.87 2.99 26.77 2.89" id="Fill-10" fill="#00AAE7"/>
    <path d="M24.86 4.82C24.68 4.63 24.39 4.63 24.2 4.81 24.02 4.99 24.02 5.29 24.2 5.47 24.21 5.48 25.6 6.91 25.6 9.09 25.6 11.24 24.22 12.6 24.21 12.62 24.02 12.79 24.02 13.09 24.2 13.27 24.29 13.37 24.41 13.42 24.53 13.42 24.65 13.42 24.76 13.37 24.85 13.29 24.92 13.22 26.52 11.65 26.52 9.09 26.52 6.53 24.93 4.89 24.86 4.82" id="Fill-12" fill="#00AAE7"/>
    <g id="Group-16" transform="translate(8.000000, 0.811500)">
      <mask id="mask-4" fill="white">
        <use xlink:href="#path-3"/>
      </mask>
      <g id="Clip-15"/>
      <path d="M8.92 15.7L8.87 15.74 3.77 15.74 3.72 15.7C1.42 13.99 1.91 12.19 1.92 12.16L2.01 11.16 10.6 11.16 10.68 11.96 10.71 12.1C10.73 12.18 11.23 13.99 8.92 15.7L8.92 15.7ZM2.5 5.41L2.72 5.45C3.04 5.52 3.39 5.55 3.76 5.55 4.64 5.55 5.69 5.38 6.71 5.07 7.78 4.75 8.76 4.3 9.53 3.76L9.8 3.57 10.55 10.66 2.05 10.66 2.5 5.41ZM2.42 3.81C2.63 3.38 3.71 2.47 5.74 1.85 6.89 1.51 7.78 1.43 8.32 1.43 8.88 1.43 9.36 1.51 9.58 1.65L9.74 1.74 9.66 1.9C9.46 2.33 8.39 3.25 6.34 3.86 5.17 4.22 4.29 4.29 3.76 4.29 3.19 4.29 2.72 4.21 2.49 4.07L2.34 3.97 2.42 3.81ZM11.93 11.78L10.92 2.15 10.78 1.28C10.2 0.56 9.29 0.19 8.07 0.19 7.28 0.19 6.37 0.34 5.37 0.64 4.3 0.97 3.28 1.44 2.52 1.98 1.16 3.02 1.29 4.57 1.29 4.67L0.7 11.82C0.59 12.29 0.15 14.78 3.22 16.89L3.38 17 9.27 17 9.43 16.89C12.5 14.77 12.06 12.29 11.93 11.78L11.93 11.78Z" id="Fill-14" fill="#12A2DC" mask="url(#mask-4)"/>
    </g>
  </g>
</svg>
