<?xml version="1.0" encoding="UTF-8" standalone="no"?>
<svg width="40px" height="52px" viewBox="0 0 40 52" version="1.1" xmlns="http://www.w3.org/2000/svg" xmlns:xlink="http://www.w3.org/1999/xlink">
    <!-- Generator: Sketch 41 (35326) - http://www.bohemiancoding.com/sketch -->
    <title>Efficiency</title>
    <desc>Created with Sketch.</desc>
    <defs></defs>
    <g id="Smart-Sport-Home-Page" stroke="none" stroke-width="1" fill="none" fill-rule="evenodd">
        <g id="Smart-Spot-Home-Page-DT" transform="translate(-598.000000, -1550.000000)" fill="#9B9B9B">
            <g id="Group-12" transform="translate(153.000000, 1540.000000)">
                <g id="Group-9" transform="translate(434.500000, 0.000000)">
                    <g id="Efficiency" transform="translate(11.000000, 10.000000)">
                        <path d="M19.3180817,5.87379039 C15.6186496,8.41166123 4.74635042,16.6647689 4.74635042,25.9977789 C4.74635042,35.3589427 15.6166136,43.5919405 19.3160457,46.1237783 C23.0134418,43.5879185 33.887777,35.3327998 33.887777,25.9977789 C33.887777,16.6647689 23.0175139,8.41367222 19.3180817,5.87379039 M19.3180817,51.1653331 C18.8966274,51.1653331 18.4772091,51.0527176 18.1046191,50.8274866 C17.3696191,50.3810466 0.104245152,39.7569803 0.104245152,25.9977789 C0.104245152,12.2405884 17.3696191,1.61451113 18.1046191,1.17008209 C18.8497992,0.717609078 19.7863643,0.717609078 20.5315443,1.17008209 C21.2665443,1.61451113 38.5298823,12.2405884 38.5298823,25.9977789 C38.5298823,39.7569803 21.2665443,50.3810466 20.5315443,50.8274866 C20.1589543,51.0527176 19.739536,51.1653331 19.3180817,51.1653331" id="Fill-1"></path>
                        <path d="M19.3180817,51.1653331 C18.0374307,51.1653331 16.9970291,50.1397277 16.9970291,48.8748142 L16.9970291,3.1227545 C16.9970291,1.85583007 18.0374307,0.832235574 19.3180817,0.832235574 C20.5987327,0.832235574 21.6391343,1.85583007 21.6391343,3.1227545 L21.6391343,48.8748142 C21.6391343,50.1397277 20.5987327,51.1653331 19.3180817,51.1653331" id="Fill-4"></path>
                        <path d="M19.3180817,36.0201566 C18.7235665,36.0201566 18.1310873,35.7969366 17.6770568,35.3504965 C16.7710319,34.4556055 16.7710319,33.0036698 17.6770568,32.1087788 L32.4584972,17.508983 C33.3645222,16.6140919 34.8324861,16.6140919 35.7385111,17.508983 C36.646572,18.4038741 36.646572,19.8537987 35.7385111,20.7486898 L20.9591066,35.3504965 C20.5050762,35.7969366 19.912597,36.0201566 19.3180817,36.0201566" id="Fill-6"></path>
                        <path d="M19.3180817,36.0201566 C18.7235665,36.0201566 18.1310873,35.7969366 17.6770568,35.3504965 L2.89561634,20.7486898 C1.9875554,19.8537987 1.9875554,18.4038741 2.89561634,17.508983 C3.80164127,16.6140919 5.26960526,16.6140919 6.17563019,17.508983 L20.9591066,32.1087788 C21.8651316,33.0036698 21.8651316,34.4556055 20.9591066,35.3504965 C20.5050762,35.7969366 19.912597,36.0201566 19.3180817,36.0201566" id="Fill-8"></path>
                    </g>
                </g>
            </g>
        </g>
    </g>
</svg>