<svg xmlns="http://www.w3.org/2000/svg" xmlns:xlink="http://www.w3.org/1999/xlink" width="13" height="13" viewBox="1265 2062 13 13" version="1.1">
  <desc>
    Created with Sketch.
  </desc>
  <rect id="Rectangle-11" stroke="none" fill="#FFFFFF" fill-rule="evenodd" x="1266" y="2063" width="11" height="11" rx="2"/>
  <g id="Group-18" stroke="none" stroke-width="1" fill="none" fill-rule="evenodd" transform="translate(1266.000000, 2063.000000)">
    <path d="M10.74 8.56C10.74 9.76 9.76 10.74 8.56 10.74L2.25 10.74C1.04 10.74 0.06 9.76 0.06 8.56L0.06 2.25C0.06 1.04 1.04 0.06 2.25 0.06L8.56 0.06C9.76 0.06 10.74 1.04 10.74 2.25L10.74 8.56ZM8.56 0L2.25 0C1.01 0 0 1.01 0 2.25L0 8.56C0 9.8 1.01 10.8 2.25 10.8L8.56 10.8C9.8 10.8 10.8 9.8 10.8 8.56L10.8 2.25C10.8 1.01 9.8 0 8.56 0Z" id="Stroke-1" stroke="#E03E52"/>
    <path d="M7.57 5.4C7.57 6.6 6.6 7.57 5.4 7.57 4.21 7.57 3.24 6.6 3.24 5.4 3.24 4.21 4.21 3.24 5.4 3.24 6.6 3.24 7.57 4.21 7.57 5.4Z" id="Stroke-3" stroke="#E03E52"/>
    <path d="M6.03 5.4C6.03 5.75 5.75 6.03 5.4 6.03 5.05 6.03 4.77 5.75 4.77 5.4 4.77 5.05 5.05 4.77 5.4 4.77 5.75 4.77 6.03 5.05 6.03 5.4" id="Fill-5" fill="#E03E52"/>
  </g>
</svg>
