<svg xmlns="http://www.w3.org/2000/svg" xmlns:xlink="http://www.w3.org/1999/xlink" width="13" height="12" viewBox="839 650 13 12" version="1.1">
  <desc>
    Created with Sketch.
  </desc>
  <g id="Group-2" stroke="none" stroke-width="1" fill="none" fill-rule="evenodd" transform="translate(840.000000, 651.000000)">
    <path d="M1.12 4.6C2.36 4.6 3.37 3.56 3.36 2.29 3.36 1.02 2.34-0.01 1.1 0L0 0 0.02 4.61 1.12 4.6Z" id="Fill-1" fill="#FEFEFE"/>
    <path d="M1.12 4.6C2.36 4.6 3.37 3.56 3.36 2.29 3.36 1.02 2.34-0.01 1.1 0L0 0 0.02 4.61 1.12 4.6Z" id="Stroke-3" stroke="#E03E52"/>
    <path d="M8.01 1.06C6.28-0.49 3.62-0.32 2.07 1.45 0.52 3.22 0.67 5.92 2.41 7.47L5.27 10.05 10.88 3.64 8.01 1.06Z" id="Fill-5" fill="#FEFEFE"/>
    <path d="M8.01 1.06C6.28-0.49 3.62-0.32 2.07 1.45 0.52 3.22 0.67 5.92 2.41 7.47L5.27 10.05 10.88 3.64 8.01 1.06Z" id="Stroke-7" stroke="#E03E52"/>
    <path d="M9.3 3L4 9.14" id="Stroke-9" stroke="#E03E52" stroke-width="0.5"/>
    <path d="M9.91 5L7 8.14C7.39 8.54 7.92 8.78 8.52 8.78 9.69 8.78 10.65 7.82 10.65 6.62 10.65 5.97 10.36 5.4 9.91 5" id="Fill-11" fill="#E03E52"/>
    <path d="M8.65 8.33C8.65 8.51 8.5 8.66 8.32 8.66 8.14 8.66 8 8.51 8 8.33 8 8.15 8.14 8 8.32 8 8.5 8 8.65 8.15 8.65 8.33" id="Fill-13" fill="#FEFEFE"/>
  </g>
</svg>
