<svg xmlns="http://www.w3.org/2000/svg" xmlns:xlink="http://www.w3.org/1999/xlink" width="16" height="16" viewBox="82 1752 16 16" version="1.1">
  <desc>
    Created with Sketch.
  </desc>
  <g id="Page-1" stroke="none" stroke-width="1" fill="none" fill-rule="evenodd" transform="translate(83.000000, 1753.000000)">
    <rect id="Rectangle-4" fill="#FFFFFF" x="0" y="0" width="14" height="14" rx="4"/>
    <path d="M13.67 10.89C13.67 12.42 12.42 13.67 10.89 13.67L2.86 13.67C1.32 13.67 0.08 12.42 0.08 10.89L0.08 2.86C0.08 1.32 1.32 0.08 2.86 0.08L10.89 0.08C12.42 0.08 13.67 1.32 13.67 2.86L13.67 10.89ZM10.89 0L2.86 0C1.28 0 0 1.28 0 2.86L0 10.89C0 12.47 1.28 13.75 2.86 13.75L10.89 13.75C12.47 13.75 13.75 12.47 13.75 10.89L13.75 2.86C13.75 1.28 12.47 0 10.89 0Z" id="Stroke-3" stroke="#A1D5B1" fill="#FFFFFF"/>
    <polygon id="Fill-5" fill="#A1D5B1" points="6.52 4.41 3.78 4.41 3.78 4.78 6.1 4.78 4.15 9.23 4.6 9.23 6.52 4.78"/>
    <polygon id="Stroke-7" stroke="#A1D4B2" stroke-width="0.5" points="6.52 4.41 3.78 4.41 3.78 4.78 6.1 4.78 4.15 9.23 4.6 9.23 6.52 4.78"/>
    <path d="M8.94 7.32C9.06 7.19 9.18 7.07 9.3 6.94 9.42 6.81 9.53 6.68 9.62 6.53 9.71 6.39 9.79 6.24 9.85 6.08 9.9 5.92 9.93 5.75 9.93 5.56 9.93 5.37 9.89 5.2 9.82 5.04 9.74 4.89 9.64 4.76 9.52 4.66 9.39 4.55 9.24 4.47 9.07 4.42 8.91 4.36 8.73 4.33 8.54 4.33 8.17 4.33 7.85 4.42 7.59 4.61 7.33 4.79 7.16 5.07 7.08 5.44L7.56 5.49C7.61 5.25 7.72 5.06 7.89 4.92 8.06 4.77 8.27 4.7 8.52 4.7 8.8 4.7 9.03 4.78 9.21 4.94 9.39 5.1 9.48 5.32 9.48 5.6 9.48 5.73 9.46 5.85 9.42 5.97 9.38 6.08 9.33 6.19 9.26 6.29 9.19 6.39 9.12 6.49 9.04 6.58 8.96 6.67 8.88 6.76 8.79 6.84L6.98 8.76 6.98 9.23 9.96 9.23 9.96 8.86 7.43 8.86 8.94 7.32Z" id="Fill-9" fill="#A1D5B1"/>
    <path d="M8.94 7.32C9.06 7.19 9.18 7.07 9.3 6.94 9.42 6.81 9.53 6.68 9.62 6.53 9.71 6.39 9.79 6.24 9.85 6.08 9.9 5.92 9.93 5.75 9.93 5.56 9.93 5.37 9.89 5.2 9.82 5.04 9.74 4.89 9.64 4.76 9.52 4.66 9.39 4.55 9.24 4.47 9.07 4.42 8.91 4.36 8.73 4.33 8.54 4.33 8.17 4.33 7.85 4.42 7.59 4.61 7.33 4.79 7.16 5.07 7.08 5.44L7.56 5.49C7.61 5.25 7.72 5.06 7.89 4.92 8.06 4.77 8.27 4.7 8.52 4.7 8.8 4.7 9.03 4.78 9.21 4.94 9.39 5.1 9.48 5.32 9.48 5.6 9.48 5.73 9.46 5.85 9.42 5.97 9.38 6.08 9.33 6.19 9.26 6.29 9.19 6.39 9.12 6.49 9.04 6.58 8.96 6.67 8.88 6.76 8.79 6.84L6.98 8.76 6.98 9.23 9.96 9.23 9.96 8.86 7.43 8.86 8.94 7.32Z" id="Stroke-11" stroke="#A1D4B2" stroke-width="0.5"/>
  </g>
</svg>
