<svg xmlns="http://www.w3.org/2000/svg" xmlns:xlink="http://www.w3.org/1999/xlink" width="48" height="16" viewBox="693 2086 48 16" version="1.1">
  <desc>
    Created with Sketch.
  </desc>
  <g id="Group-20" stroke="none" stroke-width="1" fill="none" fill-rule="evenodd" transform="translate(694.000000, 2087.000000)">
    <path d="M10.39 10.05C10.39 11.72 9.03 13.08 7.36 13.08 5.68 13.08 4.32 11.72 4.32 10.05 4.32 8.38 5.68 7.02 7.36 7.02 9.03 7.02 10.39 8.38 10.39 10.05" id="Fill-27" fill="#FEFEFE"/>
    <path d="M10.39 10.05C10.39 11.72 9.03 13.08 7.36 13.08 5.68 13.08 4.32 11.72 4.32 10.05 4.32 8.38 5.68 7.02 7.36 7.02 9.03 7.02 10.39 8.38 10.39 10.05Z" id="Stroke-28" stroke="#93D0AC" stroke-width="2"/>
    <path d="M26.05 10.05C26.05 11.72 24.69 13.08 23.01 13.08 21.33 13.08 19.98 11.72 19.98 10.05 19.98 8.38 21.33 7.02 23.01 7.02 24.69 7.02 26.05 8.38 26.05 10.05" id="Fill-29" fill="#FEFEFE"/>
    <path d="M26.05 10.05C26.05 11.72 24.69 13.08 23.01 13.08 21.33 13.08 19.98 11.72 19.98 10.05 19.98 8.38 21.33 7.02 23.01 7.02 24.69 7.02 26.05 8.38 26.05 10.05Z" id="Stroke-30" stroke="#93D0AC" stroke-width="2"/>
    <path d="M41.7 10.05C41.7 11.72 40.34 13.08 38.67 13.08 36.99 13.08 35.63 11.72 35.63 10.05 35.63 8.38 36.99 7.02 38.67 7.02 40.34 7.02 41.7 8.38 41.7 10.05" id="Fill-31" fill="#FEFEFE"/>
    <path d="M41.7 10.05C41.7 11.72 40.34 13.08 38.67 13.08 36.99 13.08 35.63 11.72 35.63 10.05 35.63 8.38 36.99 7.02 38.67 7.02 40.34 7.02 41.7 8.38 41.7 10.05Z" id="Stroke-32" stroke="#93D0AC" stroke-width="2"/>
    <path d="M7.36 3.39C10.91 3.39 13.78 6.37 13.78 10.05L0.93 10.05C0.93 6.37 3.81 3.39 7.36 3.39" id="Fill-33" fill="#FEFEFE"/>
    <path d="M7.36 3.39C10.91 3.39 13.78 6.37 13.78 10.05L0.93 10.05C0.93 6.37 3.81 3.39 7.36 3.39Z" id="Stroke-34" stroke="#93D0AC" stroke-width="2"/>
    <path d="M23.01 3.39C26.56 3.39 29.44 6.37 29.44 10.05L16.58 10.05C16.58 6.37 19.46 3.39 23.01 3.39" id="Fill-35" fill="#FEFEFE"/>
    <path d="M23.01 3.39C26.56 3.39 29.44 6.37 29.44 10.05L16.58 10.05C16.58 6.37 19.46 3.39 23.01 3.39Z" id="Stroke-36" stroke="#93D0AC" stroke-width="2"/>
    <path d="M38.67 3.39C42.22 3.39 45.09 6.37 45.09 10.05L32.24 10.05C32.24 6.37 35.12 3.39 38.67 3.39" id="Fill-37" fill="#FEFEFE"/>
    <path d="M38.67 3.39C42.22 3.39 45.09 6.37 45.09 10.05L32.24 10.05C32.24 6.37 35.12 3.39 38.67 3.39Z" id="Stroke-38" stroke="#93D0AC" stroke-width="2"/>
    <path d="M7.36 3.39L7.36 0.27" id="Stroke-39" stroke="#93D0AC" stroke-width="2" stroke-linecap="round"/>
    <path d="M23.01 3.39L23.01 0.27" id="Stroke-40" stroke="#93D0AC" stroke-width="2" stroke-linecap="round"/>
    <path d="M38.67 3.39L38.67 0.27" id="Stroke-41" stroke="#93D0AC" stroke-width="2" stroke-linecap="round"/>
  </g>
</svg>
