<svg xmlns="http://www.w3.org/2000/svg" xmlns:xlink="http://www.w3.org/1999/xlink" width="113" height="118" viewBox="0 0 113 118" version="1.1">
  <defs>
    <polygon id="path-1" points="0.13 0.35 4.16 0.35 4.16 4.36 0.13 4.36 0.13 0.35"/>
    <polygon id="path-3" points="0 37.29 0 0.66 10.14 0.66 10.14 37.29 0 37.29"/>
  </defs>
  <g id="Smart-Sport-Home-Page" stroke="none" stroke-width="1" fill="none" fill-rule="evenodd">
    <g id="Smart-Spot-Home-Page-DT" transform="translate(-121.000000, -594.000000)">
      <g id="Page-1" transform="translate(121.000000, 594.000000)">
        <g id="Group-5" transform="translate(51.057692, 0.000000)">
          <mask id="mask-2" fill="white">
            <use xlink:href="#path-1"/>
          </mask>
          <g id="Clip-4"/>
        </g>
        <g id="Group-50" transform="translate(0.000000, 47.653846)">
          <mask id="mask-4" fill="white">
            <use xlink:href="#path-3"/>
          </mask>
          <g id="Clip-49"/>
        </g>
        <g id="Group-19" fill="#415566" opacity="0.5">
          <path d="M97.72 64.06C97.11 64.06 96.55 63.81 96.12 63.38 95.69 62.98 95.47 62.4 95.47 61.79 95.47 61.2 95.69 60.61 96.12 60.2 96.95 59.36 98.47 59.34 99.3 60.18 99.71 60.61 99.96 61.2 99.96 61.79 99.96 62.4 99.73 62.98 99.3 63.38 98.88 63.81 98.31 64.06 97.72 64.06" id="Fill-1"/>
          <path d="M52.66 4.5C52.1 4.5 51.57 4.27 51.18 3.88 50.79 3.48 50.58 2.96 50.58 2.42 50.58 1.87 50.81 1.33 51.18 0.94 51.97 0.17 53.35 0.17 54.12 0.94 54.51 1.33 54.73 1.87 54.73 2.42 54.73 2.96 54.51 3.48 54.12 3.88 53.72 4.27 53.2 4.5 52.66 4.5" id="Fill-3"/>
          <path d="M87.63 6.74C87.02 6.74 86.46 6.5 86.03 6.07 85.63 5.64 85.38 5.07 85.38 4.48 85.38 3.89 85.63 3.3 86.03 2.87 86.88 2.04 88.37 2.04 89.2 2.87 89.63 3.3 89.87 3.89 89.87 4.48 89.87 5.07 89.63 5.64 89.2 6.07 88.78 6.5 88.21 6.74 87.63 6.74" id="Fill-6"/>
          <path d="M84.26 25.85C83.66 25.85 83.11 25.62 82.69 25.19 82.26 24.76 82.02 24.19 82.02 23.58 82.02 22.98 82.26 22.41 82.69 21.98 83.52 21.14 85.01 21.14 85.84 21.98 86.27 22.41 86.51 22.98 86.51 23.58 86.51 24.19 86.27 24.76 85.84 25.19 85.42 25.62 84.87 25.85 84.26 25.85" id="Fill-8"/>
          <path d="M99.96 34.84C99.37 34.84 98.8 34.61 98.38 34.18 97.96 33.75 97.71 33.18 97.71 32.57 97.71 31.97 97.96 31.4 98.38 30.97 99.21 30.13 100.72 30.13 101.55 30.97 101.96 31.4 102.2 31.97 102.2 32.57 102.2 33.18 101.98 33.75 101.53 34.18 101.13 34.61 100.56 34.84 99.96 34.84" id="Fill-10"/>
          <path d="M87.63 112.38C87.02 112.38 86.46 112.16 86.03 111.73 85.63 111.3 85.38 110.72 85.38 110.11 85.38 109.52 85.63 108.94 86.03 108.51 86.88 107.68 88.37 107.68 89.2 108.51 89.63 108.94 89.87 109.52 89.87 110.11 89.87 110.72 89.63 111.3 89.2 111.73 88.78 112.16 88.23 112.38 87.63 112.38" id="Fill-12"/>
          <path d="M29.35 20.23C28.74 20.23 28.17 19.98 27.75 19.56 27.32 19.13 27.1 18.58 27.1 17.97 27.1 17.37 27.32 16.78 27.75 16.38 28.58 15.52 30.1 15.52 30.93 16.38 31.36 16.78 31.58 17.37 31.58 17.97 31.58 18.58 31.36 19.13 30.93 19.56 30.51 19.98 29.94 20.23 29.35 20.23" id="Fill-14"/>
          <path d="M98.84 83.16L98.84 86.31C98.84 87.67 99.84 88.78 101.08 88.78 102.31 88.78 103.32 87.67 103.32 86.31L103.32 83.16 106.46 83.16C107.82 83.16 108.92 82.15 108.92 80.91 108.92 79.67 107.82 78.67 106.46 78.67L103.32 78.67 103.32 75.52C103.32 74.15 102.31 73.05 101.08 73.05 99.84 73.05 98.84 74.15 98.84 75.52L98.84 78.67 95.69 78.67C94.33 78.67 93.23 79.67 93.23 80.91 93.23 82.15 94.33 83.16 95.69 83.16L98.84 83.16Z" id="Combined-Shape"/>
          <path d="M61.85 22.48L61.85 25.63C61.85 26.99 62.85 28.1 64.09 28.1 65.33 28.1 66.33 26.99 66.33 25.63L66.33 22.48 69.47 22.48C70.83 22.48 71.93 21.47 71.93 20.23 71.93 18.99 70.83 17.98 69.47 17.98L66.33 17.98 66.33 14.83C66.33 13.47 65.33 12.36 64.09 12.36 62.85 12.36 61.85 13.47 61.85 14.83L61.85 17.98 58.7 17.98C57.35 17.98 56.24 18.99 56.24 20.23 56.24 21.47 57.35 22.48 58.7 22.48L61.85 22.48Z" id="Combined-Shape"/>
          <path d="M44.35 118C44.51 118 44.67 118 44.83 118 55.28 118 65.42 114.21 73.4 107.33 73.7 107.07 73.92 106.74 74.04 106.39 75.06 105.47 76.03 104.51 76.96 103.49 77.33 103.09 77.54 102.56 77.54 102.02L77.54 57.25C77.54 56.04 76.55 55.07 75.34 55.07 74.13 55.07 73.14 56.04 73.14 57.25L73.14 101.16C66.73 107.86 58.17 112.14 49.01 113.31 47.63 113.46 46.23 113.53 44.83 113.53 39.73 113.53 34.77 112.57 30.08 110.66 28.96 110.21 27.7 110.76 27.25 111.91 26.81 113.06 27.36 114.36 28.47 114.81 33.3 116.77 38.38 117.84 43.59 117.98 43.68 117.99 43.77 118 43.87 118 44.03 118 44.19 118 44.35 118Z" id="Combined-Shape"/>
          <path d="M3.34 85.45C2.4 85.45 1.55 84.78 1.33 83.77 0.58 80.43 0.2 76.98 0.2 73.51 0.2 65.18 2.4 57.05 6.57 50.01 7.17 48.99 8.45 48.67 9.43 49.31 10.4 49.95 10.69 51.29 10.09 52.32 6.33 58.67 4.34 65.99 4.34 73.51 4.34 76.64 4.68 79.76 5.36 82.77 5.62 83.94 4.93 85.12 3.82 85.39 3.66 85.43 3.5 85.45 3.34 85.45" id="Fill-48"/>
        </g>
        <g id="Group-18" transform="translate(1.134615, 27.230769)" fill="#E52340">
          <path d="M97.66 72.77C89.32 72.77 82.53 66.06 82.53 57.82L82.53 22.79C82.53 16.97 77.75 12.24 71.87 12.24 70.63 12.24 69.64 11.26 69.64 10.04 69.64 8.82 70.63 7.84 71.87 7.84 80.21 7.84 86.99 14.54 86.99 22.79L86.99 57.82C86.99 63.63 91.78 68.36 97.66 68.36 101.55 68.36 105.13 66.27 107.01 62.9 107.6 61.83 108.96 61.44 110.04 62.03 111.12 62.62 111.51 63.96 110.91 65.02 108.25 69.8 103.17 72.77 97.66 72.77" id="Fill-24"/>
          <path d="M5.53 71.65C4.93 71.65 4.33 71.42 3.88 70.97L0.68 67.78C-0.23 66.88-0.23 65.4 0.68 64.49 1.6 63.58 3.07 63.58 3.98 64.49L7.18 67.68C8.09 68.58 8.09 70.06 7.18 70.97 6.72 71.42 6.13 71.65 5.53 71.65" id="Fill-26"/>
          <path d="M17.88 83.96C17.28 83.96 16.69 83.73 16.23 83.28L13.04 80.1C12.13 79.19 12.13 77.71 13.04 76.8 13.95 75.9 15.43 75.9 16.34 76.81L19.53 79.99C20.44 80.9 20.44 82.37 19.53 83.28 19.08 83.73 18.48 83.96 17.88 83.96" id="Fill-28"/>
          <path d="M2.33 83.96C1.74 83.96 1.14 83.73 0.68 83.28 -0.23 82.37-0.23 80.9 0.68 79.99L3.88 76.81C4.79 75.9 6.27 75.9 7.18 76.81 8.09 77.71 8.09 79.19 7.18 80.1L3.98 83.28C3.53 83.73 2.93 83.96 2.33 83.96" id="Fill-30"/>
          <path d="M14.69 71.65C14.09 71.65 13.5 71.42 13.04 70.97 12.13 70.06 12.13 68.58 13.04 67.68L16.23 64.49C17.14 63.58 18.62 63.58 19.53 64.49 20.45 65.4 20.45 66.87 19.53 67.78L16.34 70.97C15.88 71.42 15.29 71.65 14.69 71.65" id="Fill-32"/>
          <path d="M18.53 4.4C16.32 4.4 14.53 6.19 14.53 8.4 14.53 10.6 16.32 12.39 18.53 12.39 20.74 12.39 22.54 10.6 22.54 8.4 22.54 6.19 20.74 4.4 18.53 4.4M18.53 16.79C13.89 16.79 10.11 13.03 10.11 8.4 10.11 3.76 13.89 0 18.53 0 23.18 0 26.96 3.76 26.96 8.4 26.96 13.03 23.18 16.79 18.53 16.79" id="Fill-34"/>
          <path d="M62.93 40.3L23.55 40.3C22.33 40.3 21.34 39.3 21.34 38.06 21.34 36.82 22.33 35.82 23.55 35.82L62.93 35.82C64.15 35.82 65.14 36.82 65.14 38.06 65.14 39.3 64.15 40.3 62.93 40.3" id="Fill-36"/>
          <path d="M42.68 71.65C41.44 71.65 40.43 70.67 40.43 69.46L40.43 38.01C40.43 36.8 41.44 35.82 42.68 35.82 43.92 35.82 44.93 36.8 44.93 38.01L44.93 69.46C44.93 70.67 43.92 71.65 42.68 71.65" id="Fill-38"/>
          <path d="M71.94 12.31L70.7 12.31C69.49 12.31 68.51 11.31 68.51 10.08 68.51 8.84 69.49 7.84 70.7 7.84L71.94 7.84C73.15 7.84 74.13 8.84 74.13 10.08 74.13 11.31 73.15 12.31 71.94 12.31" id="Fill-40"/>
          <path d="M61.68 12.31L59.62 12.31C58.33 12.31 57.28 11.31 57.28 10.08 57.28 8.84 58.33 7.84 59.62 7.84L61.68 7.84C62.97 7.84 64.02 8.84 64.02 10.08 64.02 11.31 62.97 12.31 61.68 12.31" id="Fill-42"/>
          <path d="M49.48 12.31L48.23 12.31C47.03 12.31 46.05 11.31 46.05 10.08 46.05 8.84 47.03 7.84 48.23 7.84L49.48 7.84C50.69 7.84 51.67 8.84 51.67 10.08 51.67 11.31 50.69 12.31 49.48 12.31" id="Fill-44"/>
          <path d="M25.76 29.9L25.76 49.42C25.76 57.4 31.21 64.29 39.02 66.18L43.24 67.2 47.46 66.18C55.27 64.29 60.72 57.4 60.72 49.42L60.72 29.9C56.96 29.93 49.34 29.48 43.24 26.04 37.14 29.48 29.53 29.96 25.76 29.9M43.24 71.65C43.07 71.65 42.89 71.63 42.72 71.59L37.97 70.44C28.18 68.07 21.34 59.43 21.34 49.42L21.34 27.62C21.34 27 21.6 26.42 22.06 26 22.51 25.59 23.12 25.37 23.74 25.43 23.85 25.44 34.9 26.31 42.02 21.63 42.76 21.15 43.72 21.15 44.46 21.63 51.58 26.31 62.64 25.44 62.74 25.43 63.37 25.38 63.97 25.59 64.43 26 64.88 26.42 65.14 27 65.14 27.62L65.14 49.42C65.14 59.43 58.3 68.07 48.51 70.44L43.76 71.59C43.59 71.63 43.41 71.65 43.24 71.65" id="Fill-53"/>
        </g>
      </g>
    </g>
  </g>
</svg>
