<svg xmlns="http://www.w3.org/2000/svg" width="45" height="54" viewBox="-2211 -318 45 54" version="1.1">
  <g id="Group-22" stroke="none" stroke-width="1" fill="none" fill-rule="evenodd" transform="translate(-2210.000000, -318.000000)">
    <g id="Security" fill="#C3C3C3">
      <path d="M41.64 20.41L2.26 20.41C1.01 20.41 0 19.37 0 18.08 0 16.79 1.01 15.75 2.26 15.75L41.64 15.75C42.89 15.75 43.9 16.79 43.9 18.08 43.9 19.37 42.89 20.41 41.64 20.41" id="Fill-1"/>
      <path d="M21.95 53.17C20.7 53.17 19.69 52.12 19.69 50.84L19.69 18.08C19.69 16.79 20.7 15.75 21.95 15.75 23.2 15.75 24.21 16.79 24.21 18.08L24.21 50.84C24.21 52.12 23.2 53.17 21.95 53.17" id="Fill-4"/>
      <path d="M4.53 9.87L4.53 30.06C4.53 38.31 9.96 45.43 17.74 47.38L21.95 48.44 26.16 47.38C33.94 45.43 39.38 38.31 39.38 30.06L39.38 9.87C35.59 9.86 28.03 9.43 21.95 5.88 16.01 9.35 8.68 9.87 4.78 9.87L4.53 9.87ZM21.95 53.17C21.77 53.17 21.59 53.14 21.42 53.1L16.67 51.91C6.86 49.45 0 40.47 0 30.06L0 7.45C0 6.8 0.27 6.18 0.73 5.74 1.2 5.3 1.83 5.07 2.46 5.13 2.57 5.14 13.6 6.04 20.7 1.21 21.46 0.69 22.44 0.69 23.2 1.21 30.3 6.04 41.33 5.14 41.45 5.13 42.08 5.08 42.7 5.3 43.17 5.74 43.63 6.18 43.9 6.8 43.9 7.45L43.9 30.06C43.9 40.47 37.04 49.45 27.23 51.91L22.49 53.1C22.31 53.14 22.13 53.17 21.95 53.17L21.95 53.17Z" id="Fill-6"/>
    </g>
  </g>
</svg>
